# Fdb version 3
["pdflatex"] 1575902740 "/home/tonelli/modelagem/modelagem.tex" "/home/tonelli/modelagem/modelagem.pdf" "modelagem" 1575902740
  "/dev/null" 1575899526 0 d41d8cd98f00b204e9800998ecf8427e ""
  "/etc/texmf/web2c/texmf.cnf" 1571841496 475 c0e671620eb5563b2130f56340a5fde8 ""
  "/home/tonelli/modelagem/modelagem.aux" 1575902740 8 a94a2480d3289e625eea47cd1b285758 ""
  "/home/tonelli/modelagem/modelagem.tex" 1575902739 2547 9ac16df5fba1676b5697f0fd9d9ed054 ""
  "/usr/share/texlive/texmf-dist/fonts/map/fontname/texfonts.map" 1511824771 3332 103109f5612ad95229751940c61aada0 ""
  "/usr/share/texlive/texmf-dist/fonts/tfm/public/cm/cmr10.tfm" 1136768653 1296 45809c5a464d5f32c8f98ba97c1bb47f ""
  "/usr/share/texlive/texmf-dist/tex/generic/unicode-data/UnicodeData.txt" 1552169639 1797715 6221effa1dd15524745a467f7366233d ""
  "/usr/share/texlive/texmf-dist/tex/latex/base/bk10.clo" 1544567569 8134 ac6964cf5a7ffe6e15439e746956135d ""
  "/usr/share/texlive/texmf-dist/tex/latex/base/book.cls" 1544567569 23057 c530077dc0c87c9ab73e8388f54f2c23 ""
  "/usr/share/texlive/texmf-dist/tex/latex/fontspec/fontspec.sty" 1552596970 1655 57753047adce10eb33bdfbe8a8047704 ""
  "/usr/share/texlive/texmf-dist/tex/latex/l3backend/l3backend-pdfmode.def" 1562101348 25421 c9d99259b38eb3c93cb93a0c12831409 ""
  "/usr/share/texlive/texmf-dist/tex/latex/l3kernel/expl3-code.tex" 1562101386 1038167 9045d8ffc635f63b319ea60f1d54740d ""
  "/usr/share/texlive/texmf-dist/tex/latex/l3kernel/expl3.sty" 1562101386 9908 351ea8d6a3cf212a6bda25bccfa85068 ""
  "/usr/share/texlive/texmf-dist/tex/latex/l3packages/xparse/xparse.sty" 1559078676 81639 5a9d5d61b6a43f3c52fe010ab68ec431 ""
  "/usr/share/texlive/texmf-dist/web2c/texmf.cnf" 1562720991 35073 2a40cfca74fcd5e2568b569ccaadf3f1 ""
  "/usr/share/texmf/web2c/texmf.cnf" 1562720991 35073 2a40cfca74fcd5e2568b569ccaadf3f1 ""
  "/var/lib/texmf/web2c/pdftex/pdflatex.fmt" 1571841946 1823791 e089ef12e732f40f17e823ac24587f84 ""
  "modelagem.tex" 1575902739 2547 9ac16df5fba1676b5697f0fd9d9ed054 ""
  (generated)
  "/home/tonelli/modelagem/modelagem.log"
  "modelagem.log"
  "/home/tonelli/modelagem/modelagem.pdf"
