\relax 
\@writefile{toc}{\contentsline {chapter}{\numberline {1}Números Naturais}{3}\protected@file@percent }
\@writefile{lof}{\addvspace {10\p@ }}
\@writefile{lot}{\addvspace {10\p@ }}
\@writefile{toc}{\contentsline {section}{\numberline {1.1}Axiomas de Peano}{3}\protected@file@percent }
\@writefile{toc}{\contentsline {section}{\numberline {1.2}Operações algébricas em $\symbb {N}$}{3}\protected@file@percent }
